Final Project 320 - NBA
…
## Warning: 16 parsing failures.
##   row                col expected actual                  file
## 17199 Estimated Position a double   #N/A 'NBA_Season_Data.csv'
## 17199 BBRef Pos          a double   #N/A 'NBA_Season_Data.csv'
## 17199 Age on Feb 1       a double   #N/A 'NBA_Season_Data.csv'
## 17199 Yrs Experience     a double   #N/A 'NBA_Season_Data.csv'
## 17199 Height             a double   #N/A 'NBA_Season_Data.csv'
## ..... .................. ........ ...... .....................
## See problems(...) for more details.

nba_seasons1 <- nba_seasons %>%
                filter(Year >= 2000)
nba_seasons1

## # A tibble: 9,048 x 109
##     Year Tm    Player   Age     G    MP   PER `TS%` `3PAr`   FTr `ORB%` `DRB%`
##    <dbl> <chr> <chr>  <dbl> <dbl> <dbl> <dbl> <dbl>  <dbl> <dbl>  <dbl>  <dbl>
##  1  2000 DAL   Micha    26    82  3464  19.2 0.522  0.151 0.194    3.8   12.2
##  2  2000 SEA   Gary     31    82  3425  23.6 0.535  0.312 0.254    3.2   13.9
##  3  2000 NYK   Latre    29    82  3276  15.7 0.515  0.097 0.304    1.8   10.5
##  4  2000 MIN   Kevin    23    81  3243  23.6 0.545  0.053 0.265    7.9   26.6
##  5  2000 VAN   Share    23    82  3223  20.2 0.547  0.075 0.431    8     22.7
##  6  2000 NYK   Allan    28    82  3169  16.5 0.569  0.191 0.263    1.5    8.5
##  7  2000 LAL   Shaqu    27    79  3163  30.6 0.578  0.001 0.495   11.5   24.8
##  8  2000 VAN   Mike     21    82  3155  16.7 0.521  0.206 0.242    2.8    8.9
##  9  2000 DET   Jerry    25    82  3148  18.9 0.545  0.199 0.524    4.3    7.2
## 10  2000 CHH   Antho    33    82  3133  14.4 0.56   0.002 0.637    5.3   19.4
## #  with 9,038 more rows, and 97 more variables: `TRB%` <dbl>, `AST%` <dbl>,
## #   `STL%` <dbl>, `BLK%` <dbl>, `TOV%` <dbl>, `USG%` <dbl>, . <lgl>, OWS <dbl>,
## #   DWS <dbl>, WS <dbl>, `WS/48` <dbl>, ._1 <lgl>, OBPM <dbl>, DBPM <dbl>,
## #   BPM <dbl>, VORP <dbl>, `OWS/48` <dbl>, `DWS/48` <dbl>, `Shot%` <dbl>,
## #   `Player ID` <chr>, `Team Mar` <dbl>, `Team MP` <dbl>, `Team Gm` <dbl>,
## #   `Year 3PAr` <dbl>, `Team TS%` <dbl>, `Tm USG` <dbl>, `Tm TS W/O
## #   Plyr` <dbl>, `Reb/Vers` <dbl>, Defense <dbl>, `Val/Shot` <dbl>,
## #   Offense <dbl>, `MPG + Int` <dbl>, `RAW SPM` <dbl>, `%Min` <chr>, `RAW
## #   Contrib` <dbl>, `Tm Sum` <dbl>, `Tm Adj` <dbl>, BPM_1 <dbl>, StdErr <dbl>,
…
nba_finals_mvp

## # A tibble: 69 x 14
##     Year `Western Champi `Eastern Champi Result `NBA Champion`
##    <dbl> <chr>            <chr>            <chr>  <chr>         
##  1  1950 Minneapolis Lak Syracuse Nation 42    Minneapolis L
##  2  1951 Rochester Royals New York Knicks  43    Rochester Roy
##  3  1952 Minneapolis Lak New York Knicks  43    Minneapolis L
##  4  1953 Minneapolis Lak New York Knicks  41    Minneapolis L
##  5  1954 Minneapolis Lak Syracuse Nation 43    Minneapolis L
##  6  1955 Fort Wayne Pist Syracuse Nation 34    Syracuse Nati
##  7  1956 Fort Wayne Pist Philadelphia Wa 14    Philadelphia 
##  8  1957 St. Louis Hawks  Boston Celtics   34    Boston Celtics
##  9  1958 St. Louis Hawks  Boston Celtics   42    St. Louis Haw
## 10  1959 Minneapolis Lak Boston Celtics   04    Boston Celtics
## #  with 59 more rows, and 9 more variables: `NBA Vice-Champion` <chr>, `Final
## #   Sweep ?` <lgl>, `MVP Name` <chr>, `MVP Height (m)` <chr>, `MVP Height
## #   (ft)` <chr>, `MVP Position` <chr>, `MVP Team` <chr>, `MVP
## #   Nationality` <chr>, `MVP status` <chr>
…
  if (nba_performance[row, "Team"] == "Celtics") {
   nba_performance[row, "Team"] <- "BOS"
  }
  
  if (nba_performance[row, "Team"] == "Pistons") {
   nba_performance[row, "Team"] <- "DET"
  }
}

nba_performance <- nba_performance %>%  
                select("Year", "Team", 'Winning Percentage')
nba_performance

## # A tibble: 506 x 3
##    Year      Team  `Winning Percentage`
##    <chr>     <chr>                <dbl>
##  1 2016-17   BOS                  0.625
##  2 2015-16   BOS                  0.585
##  3 2014-15   BOS                  0.488
##  4 2013-14   BOS                  0.305
##  5 2012-13   BOS                  0.506
##  6 2011-12 * BOS                  0.591
##  7 2010-11   BOS                  0.683
##  8 2009-10   BOS                  0.61 
##  9 2008-09   BOS                  0.756
## 10 2007-08   BOS                  0.805
## #  with 496 more rows
…
nba_seasons_offense <- select(nba_seasons1, Year, Tm, Player, Offense=Offense_1, Defense = Defense_1)
# nba_seasons_offense
nba_seasons_offense %>%
  arrange(desc(Offense)) %>%
  slice(1:100)

## # A tibble: 100 x 5
##     Year Tm    Player          Offense Defense
##    <dbl> <chr> <chr>             <dbl>   <dbl>
##  1  2014 MIA   DeAndre Liggins    29.1    -0.5
##  2  2005 NYK   Jackie Butler      24.4     3.2
##  3  2008 HOU   Gerald Green       23.8    -0.5
##  4  2016 LAL   Anthony Brown      23.5    -0.5
##  5  2009 SAS   Marcus Williams    21.5    -0.5
##  6  2004 TOR   Chris Jefferies    16.1    -0.5
##  7  2009 OKC   Steven Hill        15.3    -0.5
##  8  2016 TOR   Lucas Nogueira     15.3     5.3
##  9  2000 ORL   Earl Boykins       14.4    -0.5
## 10  2015 SAC   Eric Moreland      14.4    -0.5
## #  with 90 more rows

We know the best offense players, but now lets have a bigger picture, Teams.

We will get the averge offense and defense of all the teams so that we can use it to visualize the data.

offense <- nba_seasons_offense %>%
              filter(Year >= 2000) %>%
              group_by(Year, Tm) %>%
              summarize(mean_offense=mean(Offense), mean_defense=mean(Defense))

offense <- offense %>%
            arrange(desc(mean_offense))
offense

## # A tibble: 505 x 4
## # Groups:   Year [17]
##     Year Tm    mean_offense mean_defense
##    <dbl> <chr>        <dbl>        <dbl>
##  1  2014 MIA          1.17       -0.0333
##  2  2015 CHO          0.729      -0.165 
##  3  2009 SAS          0.52       -0.085 
##  4  2008 HOU          0.390      -0.0143
##  5  2016 LAL          0.310      -0.0897
##  6  2004 SEA          0.193      -0.0571
##  7  2010 GSW          0.175       0.04  
##  8  2016 DEN          0.152      -0.0172
##  9  2016 NOP          0.141       0.0379
## 10  2016 SAC          0.141      -0.0310
## #  with 495 more rows
…
RESULTS: The following plot shows 4 bars for each championship team. The first (dark blue) bar represents the avg offense rating for the championship team and the lighter blue bar represents the avg offense rating for the league that same year. The same is done with red bars which represent the avg defense rating for the championship team with the league avg defense rating to the right of it.

Based on these plots, we see that championship teams are rated very closely to the league average. The main difference we see is with the average offense ratings. Throughout the years, championship teams have a significantly better offense rating than the rest of the league. This means that offense is the most important factor in deciding a championship team. This is contrary to the common saying Defense wins championships.

Here we create an updated dataframe using the existing NBA performance dataframe. The purpose of this is to turn the type of the year from String to Integer for future processing.

performances <- nba_performance
performances <- performances %>% select(Year, Team, `Winning Percentage`) %>% arrange(Year)
performances$Year <- substr(performances$Year, 1, 4) %>% as.numeric()
performances

## # A tibble: 506 x 3
##     Year Team  `Winning Percentage`
##    <dbl> <chr>                <dbl>
##  1  2000 BOS                  0.439
##  2  2000 ATL                  0.305
##  3  2000 BRK                  0.317
##  4  2000 CHH                  0.561
##  5  2000 CHI                  0.183
##  6  2000 CLE                  0.366
##  7  2000 DAL                  0.646
##  8  2000 DEN                  0.488
##  9  2000 DET                  0.39 
## 10  2000 GSW                  0.207
## #  with 496 more rows
…
The next graph shows a linear regression line with a much smaller slope than that in the first graph. This means that there is less of a correlation between spending and PER in this time period. It could be assumed that other factors were important in PER than spending during this time.

The next time period (2009-2013) shows a much wider spread than the previous charts. This could mean that there was a larger difference between teams in the amount of money they were spending. It is possible that during this time new owners could have come into play which affected the amount of money that teams had.

The final time period shows more significant outliers than in any other time period. Philadelphia had very poor efficiency compared to the rest of the teams, whereas Golden State completely dominated the rest of the league in terms of PER with how much they were spending. Many basketball fans note that in 2014 GSW acquired most of the current starting lineup which was responsible for their championship in 2015. Their success in their efficient spending shows how a once low ranking team could be flipped into a championship team.

Exploratory data analysis

nba_money <- left_join(performances, payroll_df, by=c("Year" = "Year", "Team" = "Tm"))
nba_money <- nba_money %>% filter(!is.na(payroll))
nba_money <- rename(nba_money, win_p = "Winning Percentage")
nba_money

## # A tibble: 438 x 6
##     Year Team  win_p   payroll PER_year time_period
##    <dbl> <chr> <dbl>     <dbl>    <dbl> <chr>      
##  1  2001 BOS   0.598  45800000     13.5 [2000,2004]
##  2  2001 ATL   0.402  48200000     13.9 [2000,2004]
##  3  2001 CHH   0.537  67700000     14.6 [2000,2004]
##  4  2001 CHI   0.256  27400000     15.1 [2000,2004]
##  5  2001 CLE   0.354  38900000     14.4 [2000,2004]
##  6  2001 DAL   0.695 102500000     14.8 [2000,2004]
##  7  2001 DEN   0.329  51500000     15.0 [2000,2004]
##  8  2001 DET   0.61   51100000     13.7 [2000,2004]
##  9  2001 GSW   0.256  29800000     13.7 [2000,2004]
## 10  2001 HOU   0.341  73000000     15.5 [2000,2004]
## #  with 428 more rows

winnings <- nba_money %>% group_by(Team, time_period) %>% mutate(avg_Spending=mean(payroll), win_percentage=mean(win_p)) %>% distinct(Tm, avg_Spending, win_percentage)

## Warning: Trying to compute distinct() for variables not found in the data:
## - `Tm`
## This is an error, but only a warning is raised for compatibility reasons.
## The following variables will be used:
## - avg_Spending
## - win_percentage

winnings

## # A tibble: 113 x 4
## # Groups:   Team, time_period [113]
##    avg_Spending win_percentage Team  time_period
##           <dbl>          <dbl> <chr> <chr>      
##  1     55575000          0.531 BOS   [2000,2004]
##  2     45950000          0.332 ATL   [2000,2004]
##  3     66400000          0.555 CHH   [2000,2004]
##  4     30825000          0.369 CHI   [2000,2004]
##  5     38475000          0.375 CLE   [2000,2004]
##  6    105950000          0.692 DAL   [2000,2004]
##  7     50200000          0.414 DEN   [2000,2004]
##  8     74875000          0.635 DET   [2000,2004]
##  9     45475000          0.396 GSW   [2000,2004]
## 10     66500000          0.509 HOU   [2000,2004]
## #  with 103 more rows
…
